…
sheetslist <- sheetslist %>%
  map(as.tibble) %>% 
  map(mutate,well=paste0(rows,column)) %>% 
  map(mutate,OD=as.numeric(OD))
```

AllSheets is a list of dataframes. Each dataframe contains a value for
OD, well, row and column.

``` r
sheetslist[[1]]
```

    ## # A tibble: 96 x 4
    ##    rows  column     OD well 
    ##    <chr> <chr>   <dbl> <chr>
    ##  1 A     01     0.120  A01  
    ##  2 B     01     0.114  B01  
    ##  3 C     01     0.155  C01  
    ##  4 D     01     0.117  D01  
    ##  5 E     01     0.0792 E01  
    ##  6 F     01     0.0966 F01  
    ##  7 G     01     0.230  G01  
    ##  8 H     01     0.245  H01  
    ##  9 A     02     0.105  A02  
    ## 10 B     02     0.103  B02  
    ## # ... with 86 more rows
…
``` r
table1 <- final %>% as_tibble() %>% 
  gather(2:dim(final)[2],key = "ID",value="OD")
table1
```

    ## # A tibble: 192 x 3
    ##      time ID        OD
    ##     <dbl> <chr>  <dbl>
    ##  1      0 A01   0.0374
    ##  2    139 A01   0.0389
    ##  3    246 A01   0.0391
    ##  4  36393 A01   0.0412
    ##  5  95911 A01   0.0722
    ##  6 117712 A01   0.256 
    ##  7 182275 A01   0.361 
    ##  8 210934 A01   0.321 
    ##  9 262401 A01   0.309 
    ## 10 278173 A01   0.206 
    ## # ... with 182 more rows
…
