…
These are the some of the most useful:

  - rename() This is used to rename columns.

<!-- end list -->

``` r
mpg %>% 
  rename(company = manufacturer,
         cyllinders = cyl)
```

    ## # A tibble: 234 x 11
    ##    company model    displ  year cyllinders trans   drv     cty   hwy fl    class
    ##    <chr>   <chr>    <dbl> <int>      <int> <chr>   <chr> <int> <int> <chr> <chr>
    ##  1 audi    a4         1.8  1999          4 auto(l~ f        18    29 p     comp~
    ##  2 audi    a4         1.8  1999          4 manual~ f        21    29 p     comp~
    ##  3 audi    a4         2    2008          4 manual~ f        20    31 p     comp~
    ##  4 audi    a4         2    2008          4 auto(a~ f        21    30 p     comp~
    ##  5 audi    a4         2.8  1999          6 auto(l~ f        16    26 p     comp~
    ##  6 audi    a4         2.8  1999          6 manual~ f        18    26 p     comp~
    ##  7 audi    a4         3.1  2008          6 auto(a~ f        18    27 p     comp~
    ##  8 audi    a4 quat~   1.8  1999          4 manual~ 4        18    26 p     comp~
    ##  9 audi    a4 quat~   1.8  1999          4 auto(l~ 4        16    25 p     comp~
    ## 10 audi    a4 quat~   2    2008          4 manual~ 4        20    28 p     comp~
    ## # ... with 224 more rows

  - select() This function selects a group of columns. You can also
    select by index.

<!-- end list -->

``` r
mpg %>% 
  select(model,year,trans)
```

    ## # A tibble: 234 x 3
    ##    model       year trans     
    ##    <chr>      <int> <chr>     
    ##  1 a4          1999 auto(l5)  
    ##  2 a4          1999 manual(m5)
    ##  3 a4          2008 manual(m6)
    ##  4 a4          2008 auto(av)  
    ##  5 a4          1999 auto(l5)  
    ##  6 a4          1999 manual(m5)
    ##  7 a4          2008 auto(av)  
    ##  8 a4 quattro  1999 manual(m5)
    ##  9 a4 quattro  1999 auto(l5)  
    ## 10 a4 quattro  2008 manual(m6)
    ## # ... with 224 more rows
…
  - mutate(). This calculates new columns from existing ones. Use
    transmute if you want only to keep the new calculated columns.

<!-- end list -->

``` r
mpg %>% 
  mutate(cty_hwy=cty*hwy)
```

    ## # A tibble: 234 x 12
    ##    manufacturer model displ  year   cyl trans drv     cty   hwy fl    class
    ##    <chr>        <chr> <dbl> <int> <int> <chr> <chr> <int> <int> <chr> <chr>
    ##  1 audi         a4      1.8  1999     4 auto~ f        18    29 p     comp~
    ##  2 audi         a4      1.8  1999     4 manu~ f        21    29 p     comp~
    ##  3 audi         a4      2    2008     4 manu~ f        20    31 p     comp~
    ##  4 audi         a4      2    2008     4 auto~ f        21    30 p     comp~
    ##  5 audi         a4      2.8  1999     6 auto~ f        16    26 p     comp~
    ##  6 audi         a4      2.8  1999     6 manu~ f        18    26 p     comp~
    ##  7 audi         a4      3.1  2008     6 auto~ f        18    27 p     comp~
    ##  8 audi         a4 q~   1.8  1999     4 manu~ 4        18    26 p     comp~
    ##  9 audi         a4 q~   1.8  1999     4 auto~ 4        16    25 p     comp~
    ## 10 audi         a4 q~   2    2008     4 manu~ 4        20    28 p     comp~
    ## # ... with 224 more rows, and 1 more variable: cty_hwy <int>

  - count()

<!-- end list -->

``` r
mpg %>% 
  count(model)
```

    ## # A tibble: 38 x 2
    ##    model                  n
    ##    <chr>              <int>
    ##  1 4runner 4wd            6
    ##  2 a4                     7
    ##  3 a4 quattro             8
    ##  4 a6 quattro             3
    ##  5 altima                 6
    ##  6 c1500 suburban 2wd     5
    ##  7 camry                  7
    ##  8 camry solara           7
    ##  9 caravan 2wd           11
    ## 10 civic                  9
    ## # ... with 28 more rows
…
  - group\_by() and summarise()

<!-- end list -->

``` r
mpg %>% 
  group_by(manufacturer,model) %>% 
  summarise(mean_cyl=mean(cyl),
            sd_cyl=sd(cyl))
```

    ## # A tibble: 38 x 4
    ## # Groups:   manufacturer [15]
    ##    manufacturer model              mean_cyl sd_cyl
    ##    <chr>        <chr>                 <dbl>  <dbl>
    ##  1 audi         a4                     4.86  1.07 
    ##  2 audi         a4 quattro             5     1.07 
    ##  3 audi         a6 quattro             6.67  1.15 
    ##  4 chevrolet    c1500 suburban 2wd     8     0    
    ##  5 chevrolet    corvette               8     0    
    ##  6 chevrolet    k1500 tahoe 4wd        8     0    
    ##  7 chevrolet    malibu                 5.2   1.10 
    ##  8 dodge        caravan 2wd            5.82  0.603
    ##  9 dodge        dakota pickup 4wd      7.11  1.05 
    ## 10 dodge        durango 4wd            7.71  0.756
    ## # ... with 28 more rows
…
